[
  {
    "id": 1,
    "name": "Bayi",
    "discount": "19.900",
    "price": "14.900",
    "registered": "938",
    "resource_power": "0.5X",
    "disk_space": "500 MB",
    "bandwidth": "Unlimited",
    "pop3": null,
    "database": "Unlimited",
    "domain": 1,
    "addon_domain": null,
    "backup": "Instant",
    "backup_restore": null,
    "unlimited_domain_free": "Domain Gratis",
    "unlimited_ssl": "Unlimited SSL",
    "name_server": null,
    "priority": null,
    "mail_protection": null,
    "pro_mail_protection": null,
    "best_seller": false
  },
  {
    "id": 2,
    "name": "Pelajar",
    "discount": "46.900",
    "price": "23.450",
    "registered": "4.168",
    "resource_power": "1X",
    "disk_space": "Unlimited",
    "bandwidth": "Unlimited",
    "pop3": "Unlimited",
    "database": "Unlimited",
    "domain": null,
    "addon_domain": "10",
    "backup": "Instant",
    "backup_restore": null,
    "unlimited_domain_free": "Domain Gratis",
    "unlimited_ssl": "Unlimited SSL",
    "name_server": null,
    "priority": null,
    "mail_protection": null,
    "pro_mail_protection": null,
    "best_seller": false
  },
  {
    "id": 3,
    "name": "Personal",
    "discount": "58.900",
    "price": "38.900",
    "registered": "10.017",
    "resource_power": "2X",
    "disk_space": "Unlimited",
    "bandwidth": "Unlimited",
    "pop3": "Unlimited",
    "database": "Unlimited",
    "domain": null,
    "addon_domain": "Unlimited",
    "backup": "Instant",
    "backup_restore": null,
    "unlimited_domain_free": "Domain Gratis",
    "unlimited_ssl": "Unlimited SSL",
    "name_server": "Private",
    "priority": null,
    "mail_protection": "SpamAssasin",
    "pro_mail_protection": null,
    "best_seller": true
  },
  {
    "id": 4,
    "name": "Bisnis",
    "discount": "109.900",
    "price": "65.900",
    "registered": "3.552",
    "resource_power": "3X",
    "disk_space": "Unlimited",
    "bandwidth": "Unlimited",
    "pop3": "Unlimited",
    "database": "Unlimited",
    "domain": null,
    "addon_domain": "Unlimited",
    "backup": null,
    "backup_restore": "Magic Auto",
    "unlimited_domain_free": "Domain Gratis",
    "unlimited_ssl": "Unlimited SSL",
    "name_server": "Private",
    "priority": "Prioritas",
    "mail_protection": null,
    "pro_mail_protection": "SpamExpert",
    "best_seller": false,
    "discount_button": 40
  }
]
